…
cv_df
```

    ## # A tibble: 100 × 9
    ##    train                   test                  .id   main_mod three_mod
    ##    <list>                  <list>                <chr> <list>   <list>   
    ##  1 <resample [3,473 x 20]> <resample [869 x 20]> 001   <lm>     <lm>     
    ##  2 <resample [3,473 x 20]> <resample [869 x 20]> 002   <lm>     <lm>     
    ##  3 <resample [3,473 x 20]> <resample [869 x 20]> 003   <lm>     <lm>     
    ##  4 <resample [3,473 x 20]> <resample [869 x 20]> 004   <lm>     <lm>     
    ##  5 <resample [3,473 x 20]> <resample [869 x 20]> 005   <lm>     <lm>     
    ##  6 <resample [3,473 x 20]> <resample [869 x 20]> 006   <lm>     <lm>     
    ##  7 <resample [3,473 x 20]> <resample [869 x 20]> 007   <lm>     <lm>     
    ##  8 <resample [3,473 x 20]> <resample [869 x 20]> 008   <lm>     <lm>     
    ##  9 <resample [3,473 x 20]> <resample [869 x 20]> 009   <lm>     <lm>     
    ## 10 <resample [3,473 x 20]> <resample [869 x 20]> 010   <lm>     <lm>     
    ## # ℹ 90 more rows
    ## # ℹ 4 more variables: proposed_mod <list>, rmse_main <dbl>, rmse_three <dbl>,
    ## #   rmse_proposed <dbl>
…
